aula1/parte2/simulation/qsim/VHDLdemo.msim.vcd
$comment
	File created using the following command:
		vcd file VHDLdemo.msim.vcd -direction
$end
$date
	Mon Mar 14 14:49:32 2022
$end
$version
	ModelSim Version 2020.1
$end
$timescale
	1ps
$end

$scope module and2gate_vhd_vec_tst $end
$var wire 1 ! inPort0 $end
$var wire 1 " inPort1 $end
$var wire 1 # outPort $end

$scope module i1 $end
$var wire 1 $ gnd $end
$var wire 1 % vcc $end
$var wire 1 & unknown $end
$var wire 1 ' devoe $end
$var wire 1 ( devclrn $end
$var wire 1 ) devpor $end
$var wire 1 * ww_devoe $end
$var wire 1 + ww_devclrn $end
$var wire 1 , ww_devpor $end
$var wire 1 - ww_inPort0 $end
$var wire 1 . ww_inPort1 $end
$var wire 1 / ww_outPort $end
$var wire 1 0 \outPort~output_o\ $end
$var wire 1 1 \inPort0~input_o\ $end
$var wire 1 2 \inPort1~input_o\ $end
$var wire 1 3 \outPort~0_combout\ $end
$upscope $end
$upscope $end
$enddefinitions $end
#0
$dumpvars
1!
0"
0#
0$
1%
x&
1'
1(
1)
1*
1+
1,
1-
0.
0/
00
11
02
03
$end
#40000
1"
1.
12
13
10
1/
1#
#80000
0"
0!
0.
0-
01
02
03
00
0/
0#
#120000
1"
1!
1.
1-
11
12
13
10
1/
1#
#160000
0!
0-
01
03
00
0/
0#
#200000
1!
1-
11
13
10
1/
1#
#240000
0!
0"
0-
0.
02
01
03
00
0/
0#
#320000
1!
1-
11
#360000
0!
1"
0-
1.
12
01
#400000
1!
0"
1-
0.
02
11
#480000
0!
0-
01
#520000
1"
1.
12
#560000
1!
1-
11
13
10
1/
1#
#760000
0!
0"
0-
0.
02
01
03
00
0/
0#
#800000
1"
1.
12
#840000
1!
1-
11
13
10
1/
1#
#880000
0!
0"
0-
0.
02
01
03
00
0/
0#
