aula1/parte1/simulation/qsim/Gatedemo.msim.vcd
$comment
	File created using the following command:
		vcd file Gatedemo.msim.vcd -direction
$end
$date
	Mon Mar 07 15:52:39 2022
$end
$version
	ModelSim Version 2020.1
$end
$timescale
	1ps
$end

$scope module Gatedemo_vlg_vec_tst $end
$var reg 2 ! SW [1:0] $end
$var wire 1 " LEDR [0] $end

$scope module i1 $end
$var wire 1 # gnd $end
$var wire 1 $ vcc $end
$var wire 1 % unknown $end
$var tri1 1 & devclrn $end
$var tri1 1 ' devpor $end
$var tri1 1 ( devoe $end
$var wire 1 ) LEDR[0]~output_o $end
$var wire 1 * SW[1]~input_o $end
$var wire 1 + SW[0]~input_o $end
$var wire 1 , inst~combout $end
$upscope $end
$upscope $end
$enddefinitions $end
#0
$dumpvars
b0 !
0"
0#
1$
x%
1&
1'
1(
0)
0*
0+
0,
$end
#40000
b10 !
1*
#80000
b11 !
b1 !
1+
0*
#120000
b0 !
0+
#160000
b10 !
1*
#200000
b0 !
0*
#280000
b1 !
b11 !
1+
1*
1,
1)
1"
#320000
b1 !
0*
0,
0)
0"
#360000
b11 !
1*
1,
1)
1"
#440000
b1 !
0*
0,
0)
0"
#480000
b11 !
1*
1,
1)
1"
#520000
b10 !
0+
0,
0)
0"
#560000
b0 !
b1 !
1+
0*
#600000
b0 !
0+
#640000
b10 !
b11 !
1+
1*
1,
1)
1"
#680000
b1 !
0*
0,
0)
0"
#760000
b0 !
0+
#840000
b10 !
1*
#880000
b11 !
b1 !
1+
0*
#920000
b11 !
1*
1,
1)
1"
#960000
b10 !
b0 !
0+
0*
0,
0)
0"
